<svg width="18" height="18" viewBox="0 0 18 18" fill="none" xmlns="http://www.w3.org/2000/svg">
<path fill-rule="evenodd" clip-rule="evenodd" d="M10 13.9961L10 5.99608H11L11 13.9961H10Z" fill="white"/>
<path fill-rule="evenodd" clip-rule="evenodd" d="M8 5.99608L8 13.9961H7L7 5.99608H8Z" fill="white"/>
<path fill-rule="evenodd" clip-rule="evenodd" d="M13.3293 7.61979L12.6707 8.37237L9 5.16046L5.32925 8.37237L4.67075 7.61979L9 3.8317L13.3293 7.61979Z" fill="white"/>
</svg>
