{
  "nodes": [
    {
      "id": "_macroDefinitionInput_7a6943e899c00f125bc7a3b2d9dbdb70",
      "direction": "ltr",
      "x": -3,
      "y": 3,
      "inputs": [],
      "outputs": [
        {
          "type": "macroDefinitionInput.output",
          "valueType": "number",
          "id": "84d59e449373b04c3cfee3970fddb988",
          "title": "a1"
        },
        {
          "type": "macroDefinitionInput.output",
          "valueType": "number",
          "id": "e8b88e1fbda9e30bce3e0b1c3b8f24bb",
          "title": "a2"
        },
        {
          "type": "macroDefinitionInput.output",
          "valueType": "number",
          "id": "023b2d220881cf7701185c0365aa1785",
          "title": "a3"
        },
        {
          "type": "macroDefinitionInput.output",
          "valueType": "number",
          "id": "13644251225ba2f93a7a0ca77df8103e",
          "title": "a4"
        },
        {
          "type": "macroDefinitionInput.output",
          "valueType": "number",
          "id": "087d3892f85589fbbdc4c4a104886c57",
          "title": "b1"
        },
        {
          "type": "macroDefinitionInput.output",
          "valueType": "number",
          "id": "33739306ef20c5c17f771ed6f5722644",
          "title": "b2"
        },
        {
          "type": "macroDefinitionInput.output",
          "valueType": "number",
          "id": "5855c26d1e1222901e06a2bc2c2cf548",
          "title": "b3"
        },
        {
          "type": "macroDefinitionInput.output",
          "valueType": "number",
          "id": "135adab812e41a114b3252ff8ec50d05",
          "title": "b4"
        }
      ],
      "type": "macroDefinitionInput"
    },
    {
      "id": "_macroDefinitionOutput_76a172703a110fbf1a476aeafc352ef7",
      "direction": "ltr",
      "x": 23,
      "y": 3,
      "inputs": [
        {
          "type": "macroDefinitionOutput.input",
          "valueType": "number",
          "id": "caef818c2a4c62e21c1ffb2244f020dc",
          "title": "dot product"
        }
      ],
      "outputs": [],
      "type": "macroDefinitionOutput"
    },
    {
      "id": "_math_cf6590fa7951c0ea311d7b8b5f652e72",
      "direction": "ltr",
      "x": 8,
      "y": 0,
      "inputs": [
        {
          "id": "_math_input_e6af2f91457a975ecc560270d9c4b44e",
          "type": "math.input",
          "valueType": "number",
          "inputIndex": 0
        },
        {
          "id": "_math_input_a1826ec459fbb9d7333b70b2b3a44bd5",
          "type": "math.input",
          "valueType": "number",
          "inputIndex": 1
        },
        {
          "id": "_math_disable_03c1cd8c8a8aa567530287674d9cf287",
          "type": "math.disable",
          "valueType": "boolean"
        }
      ],
      "outputs": [
        {
          "id": "_math_output_7ffd9b0ccf09797bd93d68539a807ccf",
          "type": "math.output",
          "valueType": "number"
        }
      ],
      "type": "math",
      "op": "multiply"
    },
    {
      "id": "_math_12a10877677f0eb86a381431329523d0",
      "direction": "ltr",
      "x": 8,
      "y": 5,
      "inputs": [
        {
          "id": "_math_input_15cc37d2bff69d554d2d1bf186a18bb7",
          "type": "math.input",
          "valueType": "number",
          "inputIndex": 0
        },
        {
          "id": "_math_input_8392fc5958ce00ea1b0dd11b89e83c84",
          "type": "math.input",
          "valueType": "number",
          "inputIndex": 1
        },
        {
          "id": "_math_disable_e3132deb1b96128b7452a839321e6a3a",
          "type": "math.disable",
          "valueType": "boolean"
        }
      ],
      "outputs": [
        {
          "id": "_math_output_3c404c9a1f2dd1b50893068246a43997",
          "type": "math.output",
          "valueType": "number"
        }
      ],
      "type": "math",
      "op": "multiply"
    },
    {
      "id": "d7d94d7ef011208c80555687f82888a8",
      "direction": "ltr",
      "x": 8,
      "y": 10,
      "inputs": [
        {
          "id": "d4209d7e4e53b31dace5bdc01515f41c",
          "type": "math.input",
          "valueType": "number",
          "inputIndex": 0
        },
        {
          "id": "b00eac9f8bf5b31c923ddd68dddcd5bb",
          "type": "math.input",
          "valueType": "number",
          "inputIndex": 1
        },
        {
          "id": "4e3299f1cdd741401171b5b323e5762e",
          "type": "math.disable",
          "valueType": "boolean"
        }
      ],
      "outputs": [
        {
          "id": "935f8a99c177f0e000bca2eddd8ab7fe",
          "type": "math.output",
          "valueType": "number"
        }
      ],
      "type": "math",
      "op": "multiply"
    },
    {
      "id": "2e7160050a27c37b2f8d5568973bb227",
      "direction": "ltr",
      "x": 8,
      "y": 15,
      "inputs": [
        {
          "id": "8ffbd9ff5ade6c53cb7f3d6bd6c1a8db",
          "type": "math.input",
          "valueType": "number",
          "inputIndex": 0
        },
        {
          "id": "da7dfd4e9eb39ab611e5255b5a5bf852",
          "type": "math.input",
          "valueType": "number",
          "inputIndex": 1
        },
        {
          "id": "2ad2ef2f1d7c54a9602b57c19d7d6c95",
          "type": "math.disable",
          "valueType": "boolean"
        }
      ],
      "outputs": [
        {
          "id": "a79061a4d0e8723b25987b4b37c75cd2",
          "type": "math.output",
          "valueType": "number"
        }
      ],
      "type": "math",
      "op": "multiply"
    }
  ],
  "connections": [
    {
      "id": "04224bbdff8cf9de8431bd6cebbb0f3f",
      "portIdFrom": "84d59e449373b04c3cfee3970fddb988",
      "portIdTo": "_math_input_e6af2f91457a975ecc560270d9c4b44e"
    },
    {
      "id": "5f91166550257e50ca92f97004eea21d",
      "portIdFrom": "_math_output_7ffd9b0ccf09797bd93d68539a807ccf",
      "portIdTo": "caef818c2a4c62e21c1ffb2244f020dc"
    },
    {
      "id": "f942c978e3f2f83bbf9a527130c9712e",
      "portIdFrom": "_math_output_3c404c9a1f2dd1b50893068246a43997",
      "portIdTo": "caef818c2a4c62e21c1ffb2244f020dc"
    },
    {
      "id": "0ba2e59e49c2fbad6cafacf437572f7f",
      "portIdFrom": "935f8a99c177f0e000bca2eddd8ab7fe",
      "portIdTo": "caef818c2a4c62e21c1ffb2244f020dc"
    },
    {
      "id": "61a7011040c009033e316c877736384e",
      "portIdFrom": "a79061a4d0e8723b25987b4b37c75cd2",
      "portIdTo": "caef818c2a4c62e21c1ffb2244f020dc"
    },
    {
      "id": "ab5869af36cbc71bf779ff98726fe155",
      "portIdFrom": "087d3892f85589fbbdc4c4a104886c57",
      "portIdTo": "_math_input_a1826ec459fbb9d7333b70b2b3a44bd5"
    },
    {
      "id": "df7176278a559163c542f7a7452c6eef",
      "portIdFrom": "e8b88e1fbda9e30bce3e0b1c3b8f24bb",
      "portIdTo": "_math_input_15cc37d2bff69d554d2d1bf186a18bb7"
    },
    {
      "id": "9a3aebd8da2691ea0f467b3aea223b57",
      "portIdFrom": "023b2d220881cf7701185c0365aa1785",
      "portIdTo": "d4209d7e4e53b31dace5bdc01515f41c"
    },
    {
      "id": "429441657611d009ef0b49a5aad76c42",
      "portIdFrom": "13644251225ba2f93a7a0ca77df8103e",
      "portIdTo": "8ffbd9ff5ade6c53cb7f3d6bd6c1a8db"
    },
    {
      "id": "381cad490f856838bf4e98b30360b21f",
      "portIdFrom": "33739306ef20c5c17f771ed6f5722644",
      "portIdTo": "_math_input_8392fc5958ce00ea1b0dd11b89e83c84"
    },
    {
      "id": "dc4b407b5cd94c4971a735b062e82e8b",
      "portIdFrom": "5855c26d1e1222901e06a2bc2c2cf548",
      "portIdTo": "b00eac9f8bf5b31c923ddd68dddcd5bb"
    },
    {
      "id": "4e6d5da4bfe3c420bfbb3c78b56005d9",
      "portIdFrom": "135adab812e41a114b3252ff8ec50d05",
      "portIdTo": "da7dfd4e9eb39ab611e5255b5a5bf852"
    }
  ]
}