<svg width="18" height="18" viewBox="0 0 18 18" fill="none" xmlns="http://www.w3.org/2000/svg">
<path fill-rule="evenodd" clip-rule="evenodd" d="M13 13V11H14V13H16V14H14V16H13V14H11V13H13Z" fill="white"/>
<path fill-rule="evenodd" clip-rule="evenodd" d="M8 2.26149V9.04273C8.94397 8.48668 9.7686 8.3828 10.4303 8.75043C11.234 9.19694 11.5 10.1881 11.5 11C11.5 11.8702 11.2041 12.5225 10.6951 12.9466C10.2021 13.3574 9.57429 13.5 9 13.5C8.50044 13.5 8.02712 13.3452 7.66833 13.1006C7.32616 12.8673 7 12.4846 7 12V3.73852L5.1857 4.46424L4.8143 3.53577L8 2.26149ZM8 10.2449V12C8 12.0154 8.02384 12.1327 8.23167 12.2744C8.42288 12.4048 8.69956 12.5 9 12.5C9.42571 12.5 9.79785 12.3926 10.0549 12.1784C10.2959 11.9776 10.5 11.6298 10.5 11C10.5 10.3119 10.266 9.80307 9.94468 9.62458C9.67978 9.47742 9.09267 9.42496 8 10.2449Z" fill="white"/>
</svg>
