<svg width="32" height="32" viewBox="0 0 32 32" fill="none" xmlns="http://www.w3.org/2000/svg">
<path d="M4 9.5L9.5 5V14L15 9.5" stroke="black"/>
<path d="M4 22.5L7 18L12 27L15 22.5" stroke="black"/>
<path d="M17.5 10V4.5H22.5V14.5H27.5V9" stroke="black"/>
<path d="M17.5 22.5C17.6667 20.8333 18.4 17.5 20 17.5C21.6 17.5 22.3333 20.8333 22.5 22.5C22.6667 24.1667 23.4 27.5 25 27.5C26.6 27.5 27.3333 24.1667 27.5 22.5" stroke="black"/>
</svg>
