<svg width="32" height="32" viewBox="0 0 32 32" fill="none" xmlns="http://www.w3.org/2000/svg">
<path d="M6.5 4.5V24.5" stroke="black"/>
<path d="M4 7L6.5 4.5L9 7" stroke="black"/>
<path d="M27.5 25.5L7.5 25.5" stroke="black"/>
<path d="M25 23L27.5 25.5L25 28" stroke="black"/>
<path fill-rule="evenodd" clip-rule="evenodd" d="M23.1462 8.14671L19.1467 12.1462C19.4556 12.294 19.706 12.5444 19.8538 12.8533L23.8533 8.85382C23.5444 8.706 23.294 8.45559 23.1462 8.14671ZM17.3514 14.4647C17.1378 14.2107 17.0069 13.8847 17.0003 13.5284L11.6486 15.5353C11.8623 15.7893 11.9931 16.1153 11.9997 16.4716L17.3514 14.4647ZM10.3825 17.9955C10.0296 17.9681 9.71093 17.8187 9.46873 17.5893L6.61749 24.0045C6.9704 24.0319 7.28907 24.1814 7.53127 24.4107L10.3825 17.9955Z" fill="black"/>
<circle cx="6.5" cy="25.5" r="1" stroke="black"/>
<circle cx="10.5" cy="16.5" r="1" stroke="black"/>
<circle cx="18.5" cy="13.5" r="1" stroke="black"/>
<circle cx="24.5" cy="7.5" r="1" stroke="black"/>
</svg>
