<svg width="18" height="18" viewBox="0 0 18 18" fill="none" xmlns="http://www.w3.org/2000/svg">
<path fill-rule="evenodd" clip-rule="evenodd" d="M7.14286 2.19364L8.00124 2.07084C8.32796 2.0241 8.66146 2 9 2C9.33854 2 9.67204 2.0241 9.99876 2.07084L10.8571 2.19364V4.05003C10.9689 4.09198 11.0789 4.1376 11.1869 4.18674L12.4991 2.87456L13.1928 3.39413C13.7285 3.79536 14.2047 4.27153 14.6059 4.80725L15.1254 5.50097L13.8133 6.81314C13.8624 6.92114 13.908 7.03109 13.95 7.14286H15.8064L15.9292 8.00126C15.9759 8.32795 16 8.66146 16 9C16 9.33854 15.9759 9.67205 15.9292 9.99874L15.8064 10.8571H13.95C13.908 10.9689 13.8624 11.0789 13.8133 11.1869L15.1254 12.499L14.6059 13.1927C14.2046 13.7285 13.7285 14.2046 13.1928 14.6059L12.499 15.1254L11.1869 13.8133C11.0789 13.8624 10.9689 13.908 10.8571 13.95V15.8064L9.99876 15.9292C9.67204 15.9759 9.33854 16 9 16C8.66146 16 8.32796 15.9759 8.00124 15.9292L7.14286 15.8064V13.95C7.03109 13.908 6.92113 13.8624 6.81313 13.8133L5.50096 15.1254L4.80724 14.6059C4.27154 14.2046 3.79536 13.7285 3.39412 13.1927L2.87457 12.499L4.18674 11.1869C4.13761 11.0789 4.092 10.9689 4.05005 10.8571H2.19362L2.07084 9.99874C2.02411 9.67205 2 9.33854 2 9C2 8.66146 2.02411 8.32795 2.07084 8.00126L2.19362 7.14286H4.05005C4.092 7.03109 4.13761 6.92114 4.18674 6.81314L2.87456 5.50097L3.39412 4.80725C3.79535 4.27153 4.27152 3.79536 4.80723 3.39413L5.50094 2.87456L6.81312 4.18674C6.92112 4.1376 7.03108 4.09198 7.14286 4.05003V2.19364ZM6.63651 5.42434C7.08635 5.1264 7.59567 4.91107 8.14286 4.80001V3.06076C8.42281 3.02072 8.70898 3 9 3C9.29102 3 9.57719 3.02072 9.85714 3.06076V4.80001C10.4043 4.91107 10.9136 5.1264 11.3635 5.42434L12.5933 4.19453C13.0528 4.53869 13.4613 4.9472 13.8055 5.40671L12.5757 6.63653C12.8736 7.08636 13.0889 7.59569 13.2 8.14286H14.9392C14.9793 8.4228 15 8.70899 15 9C15 9.29101 14.9793 9.5772 14.9392 9.85714H13.2C13.0889 10.4043 12.8736 10.9136 12.5757 11.3635L13.8055 12.5933C13.4613 13.0528 13.0528 13.4613 12.5933 13.8055L11.3635 12.5757C10.9136 12.8736 10.4043 13.0889 9.85714 13.2V14.9392C9.57719 14.9793 9.29102 15 9 15C8.70898 15 8.42281 14.9793 8.14286 14.9392V13.2C7.59568 13.0889 7.08636 12.8736 6.63653 12.5757L5.40671 13.8055C4.9472 13.4613 4.53868 13.0528 4.19453 12.5933L5.42434 11.3635C5.12641 10.9136 4.91109 10.4043 4.80002 9.85714H3.06076C3.02072 9.5772 3 9.29101 3 9C3 8.70899 3.02072 8.4228 3.06076 8.14286H4.80002C4.91109 7.59569 5.12641 7.08636 5.42434 6.63653L4.19452 5.40671C4.53867 4.9472 4.94719 4.53869 5.4067 4.19453L6.63651 5.42434Z" fill="white"/>
<path fill-rule="evenodd" clip-rule="evenodd" d="M9 10C9.55228 10 10 9.55228 10 9C10 8.44772 9.55228 8 9 8C8.44772 8 8 8.44772 8 9C8 9.55228 8.44772 10 9 10ZM9 11C10.1046 11 11 10.1046 11 9C11 7.89543 10.1046 7 9 7C7.89543 7 7 7.89543 7 9C7 10.1046 7.89543 11 9 11Z" fill="white"/>
</svg>
