<svg width="18" height="18" viewBox="0 0 18 18" fill="none" xmlns="http://www.w3.org/2000/svg">
<path d="M2 9.5388C4 9.5388 3.5 5.03879 5 5.53878C6.5 6.03877 6 9.53878 8 9.53878C10.2204 9.53878 9.5 12.0388 11.5 12.0388C13.5 12.0388 14 9.53881 16 9.5388" stroke="white"/>
</svg>
