<svg width="18" height="18" viewBox="0 0 18 18" fill="none" xmlns="http://www.w3.org/2000/svg">
<path fill-rule="evenodd" clip-rule="evenodd" d="M12 5H6V13H12V5ZM5 4V14H13V4H5Z" fill="white"/>
<path fill-rule="evenodd" clip-rule="evenodd" d="M16 9.5H12.5V8.5H16V9.5Z" fill="white"/>
<path fill-rule="evenodd" clip-rule="evenodd" d="M5.5 9.5H2V8.5H5.5V9.5Z" fill="white"/>
<path fill-rule="evenodd" clip-rule="evenodd" d="M8.37485 11.7348C8.00445 11.9149 7.54824 12 7 12V11C7.45176 11 7.74555 10.9289 7.93765 10.8355C8.12013 10.7468 8.23149 10.6285 8.30882 10.4835C8.48791 10.1477 8.5 9.66435 8.5 9C8.5 8.97969 8.49999 8.95916 8.49997 8.93843C8.49956 8.36137 8.49904 7.6268 8.80882 7.04596C8.98149 6.7222 9.24513 6.44989 9.62515 6.26516C9.99555 6.08511 10.4518 6 11 6V7C10.5482 7 10.2545 7.07114 10.0623 7.16453C9.87987 7.25323 9.76851 7.37155 9.69118 7.51654C9.51209 7.85234 9.5 8.33565 9.5 9C9.5 9.02031 9.50001 9.04084 9.50003 9.06157C9.50044 9.63863 9.50096 10.3732 9.19118 10.954C9.01851 11.2778 8.75487 11.5501 8.37485 11.7348Z" fill="white"/>
<path fill-rule="evenodd" clip-rule="evenodd" d="M11 9.5H7V8.5H11V9.5Z" fill="white"/>
</svg>
