<svg width="18" height="18" viewBox="0 0 18 18" fill="none" xmlns="http://www.w3.org/2000/svg">
<path fill-rule="evenodd" clip-rule="evenodd" d="M12 5H6V13H12V5ZM5 4V14H13V4H5Z" fill="white"/>
<path fill-rule="evenodd" clip-rule="evenodd" d="M16 9.5H12.5V8.5H16V9.5Z" fill="white"/>
<path fill-rule="evenodd" clip-rule="evenodd" d="M5.5 7.5H2V6.5H5.5V7.5Z" fill="white"/>
<path fill-rule="evenodd" clip-rule="evenodd" d="M2 10.5H5.5V11.5H2V10.5Z" fill="white"/>
<path fill-rule="evenodd" clip-rule="evenodd" d="M7 6L7.94721 5.77639L10 9.88197V6H11V12L10.0528 12.2236L8 8.11803V12H7V6Z" fill="white"/>
</svg>
