<svg width="18" height="18" viewBox="0 0 18 18" fill="none" xmlns="http://www.w3.org/2000/svg">
<path fill-rule="evenodd" clip-rule="evenodd" d="M6.01961 1.84277L11.5533 13.9163L14.5681 8.74809L15.4319 9.25196L11.4467 16.0837L5.98039 4.15728L3.44721 9.22363L2.55279 8.77642L6.01961 1.84277Z" fill="white"/>
</svg>
