<svg width="18" height="18" viewBox="0 0 18 18" fill="none" xmlns="http://www.w3.org/2000/svg">
<path d="M10.3492 12.7667C11.8945 12.2131 13 10.7357 13 9C13 7.26433 11.8945 5.78685 10.3492 5.23327V6.31981C11.3284 6.81371 12 7.82843 12 9C12 10.1716 11.3284 11.1863 10.3492 11.6802V12.7667Z" fill="white"/>
<path d="M17 9.5H14V8.5H17V9.5Z" fill="white"/>
<path d="M12.8891 5.81801L15.0105 3.69669L14.3033 2.98959L12.182 5.11091L12.8891 5.81801Z" fill="white"/>
<path d="M12.182 12.8891L14.3033 15.0104L15.0105 14.3033L12.8891 12.182L12.182 12.8891Z" fill="white"/>
<path d="M7.65076 1.02872C7.42573 1.0097 7.19804 1 6.96809 1C5.77112 1 4.63556 1.26287 3.61597 1.73404C3.31959 1.871 3.033 2.02557 2.75756 2.19639C2.49449 2.35954 2.24158 2.53753 2 2.72918C2.24838 2.69949 2.50119 2.68421 2.75756 2.68421C3.1055 2.68421 3.44686 2.71234 3.77951 2.76646C5.33331 3.01926 6.6968 3.839 7.65076 5.00647V3.56141C6.99654 2.97241 6.23548 2.49976 5.40019 2.17607C5.90408 2.06084 6.42883 2 6.96809 2C7.19841 2 7.42614 2.01112 7.65076 2.03286L7.65076 1.02872Z" fill="white"/>
<path d="M7.65076 15.9671V16.9713C7.42572 16.9903 7.19804 17 6.96808 17C5.77112 17 4.63556 16.7371 3.61597 16.266C3.31959 16.129 3.033 15.9744 2.75756 15.8036C2.49449 15.6405 2.24158 15.4625 2 15.2708C2.24838 15.3005 2.50119 15.3158 2.75756 15.3158C3.1055 15.3158 3.44686 15.2877 3.77951 15.2335C5.33331 14.9807 6.6968 14.161 7.65076 12.9935V14.4386C6.99653 15.0276 6.23548 15.5002 5.40019 15.8239C5.90408 15.9392 6.42883 16 6.96808 16C7.19841 16 7.42614 15.9889 7.65076 15.9671Z" fill="white"/>
<path fill-rule="evenodd" clip-rule="evenodd" d="M8.5 17V1H9.5V17H8.5Z" fill="white"/>
</svg>
