{
  "nodes": [
    {
      "id": "3a9b2999d9747951dfe4d3ba9f3dfe38",
      "direction": "ltr",
      "x": -32,
      "y": 0,
      "inputs": [],
      "outputs": [
        {
          "type": "macroDefinitionInput.output",
          "valueType": "number",
          "id": "2f64edd777f691164abc9c9cfc199300",
          "title": "a1"
        },
        {
          "type": "macroDefinitionInput.output",
          "valueType": "number",
          "id": "13e732c9d6f548911e532661758dc800",
          "title": "a2"
        },
        {
          "type": "macroDefinitionInput.output",
          "valueType": "number",
          "id": "5d47fea42c7b3e9211be36377c58a000",
          "title": "b0"
        },
        {
          "type": "macroDefinitionInput.output",
          "valueType": "number",
          "id": "559819fb522efdea3c254ca43ffa3000",
          "title": "b1"
        },
        {
          "type": "macroDefinitionInput.output",
          "valueType": "number",
          "id": "723b743589ac8611f652778e96284900",
          "title": "b2"
        },
        {
          "type": "macroDefinitionInput.output",
          "valueType": "number",
          "id": "f11446d6c62a1433631e57351a821000",
          "title": "signal"
        }
      ],
      "type": "macroDefinitionInput"
    },
    {
      "id": "a14ea6dfbb7c137d1a66d3f1de48c23d",
      "direction": "ltr",
      "x": 52,
      "y": 5,
      "inputs": [
        {
          "type": "macroDefinitionOutput.input",
          "valueType": "number",
          "id": "3cf9cfd574b56d6b8c59f59de727f000",
          "title": "signal"
        }
      ],
      "outputs": [],
      "type": "macroDefinitionOutput"
    },
    {
      "id": "42c74a6f14ee1eab23d5d537bf3a7700",
      "direction": "ltr",
      "x": -4,
      "y": 15,
      "inputs": [
        {
          "id": "6ba4fab1c37568bf88b2593115ec7000",
          "type": "math.input",
          "valueType": "number",
          "inputIndex": 0
        },
        {
          "id": "ebde51c873fcc64c1f372e9c11b731a0",
          "type": "math.input",
          "valueType": "number",
          "inputIndex": 1
        },
        {
          "id": "b84d8664b371ba63ff61b4ad27dd1700",
          "type": "math.disable",
          "valueType": "boolean"
        }
      ],
      "outputs": [
        {
          "id": "441271c2a4ba3a2126e9b2aa8d89d900",
          "type": "math.output",
          "valueType": "number"
        }
      ],
      "type": "math",
      "op": "multiply"
    },
    {
      "id": "fa9cba5a5487a88861b254feec290000",
      "direction": "ltr",
      "x": -4,
      "y": 27,
      "inputs": [
        {
          "id": "fea89ac98ee1845ae2681b697aa00000",
          "type": "math.input",
          "valueType": "number",
          "inputIndex": 0
        },
        {
          "id": "3838bf1947d2afe7d6c35227fbd19d00",
          "type": "math.input",
          "valueType": "number",
          "inputIndex": 1
        },
        {
          "id": "88ae994bd9a6ee4279621acc32db9870",
          "type": "math.disable",
          "valueType": "boolean"
        }
      ],
      "outputs": [
        {
          "id": "5f2f75fc6e8826b436e3e9b7542afba0",
          "type": "math.output",
          "valueType": "number"
        }
      ],
      "type": "math",
      "op": "multiply"
    },
    {
      "id": "76dd4e868d7819329f3ded91aa7f6400",
      "direction": "ltr",
      "x": -20,
      "y": 26,
      "inputs": [
        {
          "id": "8eaec9cc4de22aa97ab7b7e32a998000",
          "type": "delay.input",
          "valueType": "number",
          "inputIndex": 0
        },
        {
          "id": "248c6ccb6eb87b9d9ecc1d7dcde71000",
          "type": "delay.time",
          "valueType": "number"
        },
        {
          "id": "12684ad599b8f85e64fef2f75b6aaa00",
          "type": "delay.disable",
          "valueType": "boolean"
        }
      ],
      "outputs": [
        {
          "id": "914d46541976b3a715a4dafd45900000",
          "type": "delay.output",
          "valueType": "number",
          "outputIndex": 0
        }
      ],
      "type": "delay",
      "timeType": "samples",
      "maxLength": 1
    },
    {
      "id": "39d2a3f423d9612875aa6af482ca847e",
      "direction": "ltr",
      "x": -20,
      "y": 14,
      "inputs": [
        {
          "id": "babf52ff7d873c53e26d1fc8714629a0",
          "type": "delay.input",
          "valueType": "number",
          "inputIndex": 0
        },
        {
          "id": "79d5c4c734edfe277a9231c38a2952a0",
          "type": "delay.time",
          "valueType": "number"
        },
        {
          "id": "a8945ee42d6383a412747f82a5b41800",
          "type": "delay.disable",
          "valueType": "boolean"
        }
      ],
      "outputs": [
        {
          "id": "8efcb44a92a96f37d2bb47556e7b0000",
          "type": "delay.output",
          "valueType": "number",
          "outputIndex": 0
        }
      ],
      "type": "delay",
      "timeType": "samples",
      "maxLength": 1
    },
    {
      "id": "5ebfdf26b7a6f79bedb174fb12f87900",
      "direction": "rtl",
      "x": 42,
      "y": 14,
      "inputs": [
        {
          "id": "22dddb1282c3c24cd6d77ddc53d7848e",
          "type": "delay.input",
          "valueType": "number",
          "inputIndex": 0
        },
        {
          "id": "dcac8a98ecd21f196cdd6791cb000000",
          "type": "delay.time",
          "valueType": "number"
        },
        {
          "id": "fd52f1bf82df7c417d452a8472e30000",
          "type": "delay.disable",
          "valueType": "boolean"
        }
      ],
      "outputs": [
        {
          "id": "1718cbad83af1fd2d7ce9ecdc174bdae",
          "type": "delay.output",
          "valueType": "number",
          "outputIndex": 0
        }
      ],
      "type": "delay",
      "timeType": "samples",
      "maxLength": 1
    },
    {
      "id": "d85aa41e6d8e153e628dde3c1b334500",
      "direction": "rtl",
      "x": 42,
      "y": 26,
      "inputs": [
        {
          "id": "c25c16762b2ce52165942c33f9c34000",
          "type": "delay.input",
          "valueType": "number",
          "inputIndex": 0
        },
        {
          "id": "375c315a6cb6256b71b22a2da53bfaa0",
          "type": "delay.time",
          "valueType": "number"
        },
        {
          "id": "45f413f845adfd1489f97f942cb3d190",
          "type": "delay.disable",
          "valueType": "boolean"
        }
      ],
      "outputs": [
        {
          "id": "c5852248df221c35a89485bd35e6f534",
          "type": "delay.output",
          "valueType": "number",
          "outputIndex": 0
        }
      ],
      "type": "delay",
      "timeType": "samples",
      "maxLength": 1
    },
    {
      "id": "454af4e11b222dfa16716c8bd337cc70",
      "direction": "ltr",
      "x": -36,
      "y": 28,
      "inputs": [
        {
          "id": "72b4bd2fee25d584c5b366387a943f00",
          "type": "const.disable",
          "valueType": "boolean"
        }
      ],
      "outputs": [
        {
          "id": "359fe44369d78b17973d3692cbe268ec",
          "type": "const.value",
          "valueType": "number"
        }
      ],
      "type": "const",
      "value": 1
    },
    {
      "id": "1627bbbe2d215a1637193aa4775d29df",
      "direction": "ltr",
      "x": -36,
      "y": 16,
      "inputs": [
        {
          "id": "a6e783d42bc6678392792ee79cc5c8c0",
          "type": "const.disable",
          "valueType": "boolean"
        }
      ],
      "outputs": [
        {
          "id": "63e9c868186ca88229ff2c993736c970",
          "type": "const.value",
          "valueType": "number"
        }
      ],
      "type": "const",
      "value": 1
    },
    {
      "id": "6168f66ff273b243536d1c9d55ee5000",
      "direction": "rtl",
      "x": 60,
      "y": 16,
      "inputs": [
        {
          "id": "31f23b7cf816b7bfe9194cfa7b758800",
          "type": "const.disable",
          "valueType": "boolean"
        }
      ],
      "outputs": [
        {
          "id": "88e32b1524949da13f987defd15c57b0",
          "type": "const.value",
          "valueType": "number"
        }
      ],
      "type": "const",
      "value": 1
    },
    {
      "id": "db675393774ebb14cc8a8ad5189b8000",
      "direction": "rtl",
      "x": 60,
      "y": 28,
      "inputs": [
        {
          "id": "42e72cc95a78b46649dff2514a63ac00",
          "type": "const.disable",
          "valueType": "boolean"
        }
      ],
      "outputs": [
        {
          "id": "933d3ea3a1ed7dfe3dde1f3834796b00",
          "type": "const.value",
          "valueType": "number"
        }
      ],
      "type": "const",
      "value": 1
    },
    {
      "id": "28a7fc6af9b47aed257f443d69aa5000",
      "direction": "ltr",
      "x": 12,
      "y": 3,
      "inputs": [
        {
          "id": "f9aeb167859355dfee7dd3a959761bc0",
          "type": "math.input",
          "valueType": "number",
          "inputIndex": 0
        },
        {
          "id": "25887d27b479f3e3b3938b9436b1b410",
          "type": "math.input",
          "valueType": "number",
          "inputIndex": 1
        },
        {
          "id": "3c499bc3a5a99f14b5d363a461593e60",
          "type": "math.disable",
          "valueType": "boolean"
        }
      ],
      "outputs": [
        {
          "id": "5f2ef4d78f1ebe978f8fd7e58452d1e0",
          "type": "math.output",
          "valueType": "number"
        }
      ],
      "type": "math",
      "op": "minus"
    },
    {
      "id": "a5cec4915ece2617d4e54353e44c5270",
      "direction": "ltr",
      "x": -4,
      "y": 3,
      "inputs": [
        {
          "id": "ebe848c85a238b349c9b71cf8c22a000",
          "type": "math.input",
          "valueType": "number",
          "inputIndex": 0
        },
        {
          "id": "cde18b818292f3af1967779bf9133200",
          "type": "math.input",
          "valueType": "number",
          "inputIndex": 1
        },
        {
          "id": "55d9c828437f3128bd92fd43b7e57c80",
          "type": "math.disable",
          "valueType": "boolean"
        }
      ],
      "outputs": [
        {
          "id": "15a3bb3836895aa42215425aca12aec8",
          "type": "math.output",
          "valueType": "number"
        }
      ],
      "type": "math",
      "op": "multiply"
    },
    {
      "id": "6df7ea7ee1aaa913cdd1783cff2f8900",
      "direction": "rtl",
      "x": 27,
      "y": 15,
      "inputs": [
        {
          "id": "6f673f14b9cbf696af5ebef174ff3f00",
          "type": "math.input",
          "valueType": "number",
          "inputIndex": 0
        },
        {
          "id": "2feb285e8462f7b4e77fc5ea73938220",
          "type": "math.input",
          "valueType": "number",
          "inputIndex": 1
        },
        {
          "id": "39683c5caadffa5eb91131e175eefd00",
          "type": "math.disable",
          "valueType": "boolean"
        }
      ],
      "outputs": [
        {
          "id": "59ca7b4d113c3e9c75147912239f8f00",
          "type": "math.output",
          "valueType": "number"
        }
      ],
      "type": "math",
      "op": "multiply"
    },
    {
      "id": "32cffcf8629159adb12da999f29289e0",
      "direction": "rtl",
      "x": 27,
      "y": 27,
      "inputs": [
        {
          "id": "5fec6f8cd8154cda79c49169a222b600",
          "type": "math.input",
          "valueType": "number",
          "inputIndex": 0
        },
        {
          "id": "bfc973a573eb9dbe6afadf8e6de26400",
          "type": "math.input",
          "valueType": "number",
          "inputIndex": 1
        },
        {
          "id": "852c77295db45d646d3a623ee8db9f2f",
          "type": "math.disable",
          "valueType": "boolean"
        }
      ],
      "outputs": [
        {
          "id": "4a6ac827f252867862f92f45df740000",
          "type": "math.output",
          "valueType": "number"
        }
      ],
      "type": "math",
      "op": "multiply"
    }
  ],
  "connections": [
    {
      "id": "2f5a2964b151a961852d81edd69952e0",
      "portIdFrom": "63e9c868186ca88229ff2c993736c970",
      "portIdTo": "79d5c4c734edfe277a9231c38a2952a0"
    },
    {
      "id": "d5ad77359632eeec888443b61ce7d100",
      "portIdFrom": "359fe44369d78b17973d3692cbe268ec",
      "portIdTo": "248c6ccb6eb87b9d9ecc1d7dcde71000"
    },
    {
      "id": "effb5d76fe8fdddcd62bc89597fc0000",
      "portIdFrom": "f11446d6c62a1433631e57351a821000",
      "portIdTo": "babf52ff7d873c53e26d1fc8714629a0"
    },
    {
      "id": "bdc9b745f354b51cfde553ec41256000",
      "portIdFrom": "8efcb44a92a96f37d2bb47556e7b0000",
      "portIdTo": "8eaec9cc4de22aa97ab7b7e32a998000"
    },
    {
      "id": "e89f84562c96fc551ce78c13c21dbd60",
      "portIdFrom": "914d46541976b3a715a4dafd45900000",
      "portIdTo": "3838bf1947d2afe7d6c35227fbd19d00"
    },
    {
      "id": "ac6874d9c7dc7847bbb9952e496aca00",
      "portIdFrom": "723b743589ac8611f652778e96284900",
      "portIdTo": "fea89ac98ee1845ae2681b697aa00000"
    },
    {
      "id": "8df8b6459283c68b7be2128a5f787000",
      "portIdFrom": "559819fb522efdea3c254ca43ffa3000",
      "portIdTo": "6ba4fab1c37568bf88b2593115ec7000"
    },
    {
      "id": "bf356261994de3b77816d784cd7a2200",
      "portIdFrom": "8efcb44a92a96f37d2bb47556e7b0000",
      "portIdTo": "ebde51c873fcc64c1f372e9c11b731a0"
    },
    {
      "id": "6743c8a9ffdf7c3158b1e3db2138e000",
      "portIdFrom": "5d47fea42c7b3e9211be36377c58a000",
      "portIdTo": "ebe848c85a238b349c9b71cf8c22a000"
    },
    {
      "id": "1e664c64d9959aafb9de19875ddca2f3",
      "portIdFrom": "f11446d6c62a1433631e57351a821000",
      "portIdTo": "cde18b818292f3af1967779bf9133200"
    },
    {
      "id": "eeef2bd421949b235567398b9c56e800",
      "portIdFrom": "15a3bb3836895aa42215425aca12aec8",
      "portIdTo": "f9aeb167859355dfee7dd3a959761bc0"
    },
    {
      "id": "ee16d67ca5612a139a6b2f2a84550000",
      "portIdFrom": "5f2ef4d78f1ebe978f8fd7e58452d1e0",
      "portIdTo": "3cf9cfd574b56d6b8c59f59de727f000"
    },
    {
      "id": "2c4be175223f932953b3967bf5c64000",
      "portIdFrom": "5f2ef4d78f1ebe978f8fd7e58452d1e0",
      "portIdTo": "22dddb1282c3c24cd6d77ddc53d7848e"
    },
    {
      "id": "62c399a5db4b2c7ecba7552c7be19100",
      "portIdFrom": "88e32b1524949da13f987defd15c57b0",
      "portIdTo": "dcac8a98ecd21f196cdd6791cb000000"
    },
    {
      "id": "4e5f65825cbd6bad5d7cdb37ba4b4c00",
      "portIdFrom": "933d3ea3a1ed7dfe3dde1f3834796b00",
      "portIdTo": "375c315a6cb6256b71b22a2da53bfaa0"
    },
    {
      "id": "ac879edcbe1afbcd956e725d8c342000",
      "portIdFrom": "1718cbad83af1fd2d7ce9ecdc174bdae",
      "portIdTo": "c25c16762b2ce52165942c33f9c34000"
    },
    {
      "id": "2db8532933276c4aa15b42bc3ab4c5a0",
      "portIdFrom": "1718cbad83af1fd2d7ce9ecdc174bdae",
      "portIdTo": "6f673f14b9cbf696af5ebef174ff3f00"
    },
    {
      "id": "882516c27257d38267354f14778ae5c6",
      "portIdFrom": "2f64edd777f691164abc9c9cfc199300",
      "portIdTo": "2feb285e8462f7b4e77fc5ea73938220"
    },
    {
      "id": "395425e4871251be3ac49fcf7bdcb800",
      "portIdFrom": "13e732c9d6f548911e532661758dc800",
      "portIdTo": "bfc973a573eb9dbe6afadf8e6de26400"
    },
    {
      "id": "f469d71bb6b6da1d97a47954caaa4000",
      "portIdFrom": "c5852248df221c35a89485bd35e6f534",
      "portIdTo": "5fec6f8cd8154cda79c49169a222b600"
    },
    {
      "id": "2bec8b2c74c15b6758925acb4a6a1700",
      "portIdFrom": "441271c2a4ba3a2126e9b2aa8d89d900",
      "portIdTo": "f9aeb167859355dfee7dd3a959761bc0"
    },
    {
      "id": "dcf2afa77f1787797ddc972931a93126",
      "portIdFrom": "5f2f75fc6e8826b436e3e9b7542afba0",
      "portIdTo": "f9aeb167859355dfee7dd3a959761bc0"
    },
    {
      "id": "cf93eb4f47d61958e9f2a554b7236000",
      "portIdFrom": "59ca7b4d113c3e9c75147912239f8f00",
      "portIdTo": "25887d27b479f3e3b3938b9436b1b410"
    },
    {
      "id": "cf89c5c8cf55c6d8ddf2fe4d1b485800",
      "portIdFrom": "4a6ac827f252867862f92f45df740000",
      "portIdTo": "25887d27b479f3e3b3938b9436b1b410"
    }
  ]
}
